<?xml version="1.0"?>
<!-- Created by MetaPost 1.999 on 2018.01.25:0011 -->
<svg version="1.1" xmlns="http://www.w3.org/2000/svg" xmlns:xlink="http://www.w3.org/1999/xlink" width="104.981339" height="100.500000" viewBox="0 0 104.981339 100.500000">
<!-- Original BoundingBox: -2.490677 -50.250000 102.490662 50.250000 -->
  <path d="M2.000000 50.000000C2.000000 116.666672,102.000000 116.666672,102.000000 50.000000C102.000000 -16.666672,2.000000 -16.666672,2.000000 50.000000Z" style="stroke:rgb(0.000000%,0.000000%,0.000000%); stroke-width: 0.500000;stroke-linejoin: bevel;stroke-miterlimit: 10.000000;fill: none;"></path>
  <path d="M2.000000 50.000000C2.000000 -16.666672,102.000000 116.666672,102.000000 50.000000C102.000000 -16.666672,2.000000 116.666672,2.000000 50.000000Z" style="stroke:rgb(100.000000%,0.000000%,0.000000%); stroke-width: 0.500000;stroke-linejoin: bevel;stroke-miterlimit: 10.000000;fill: none;"></path>
  <g transform="translate(-0.490677 47.000000)" style="fill: rgb(0.000000%,0.000000%,0.000000%);">
    <text font-size="9.962646">1</text>
  </g>
  <path d="M2.000000 50.000000l0 0" style="stroke:rgb(0.000000%,0.000000%,0.000000%); stroke-width: 3.000000;stroke-linecap: round;stroke-linejoin: bevel;stroke-miterlimit: 10.000000;fill: none;"></path>
  <g transform="translate(99.509323 47.000000)" style="fill: rgb(0.000000%,0.000000%,0.000000%);">
    <text font-size="9.962646">2</text>
  </g>
  <path d="M102.000000 50.000000l0 0" style="stroke:rgb(0.000000%,0.000000%,0.000000%); stroke-width: 3.000000;stroke-linecap: round;stroke-linejoin: bevel;stroke-miterlimit: 10.000000;fill: none;"></path>
</svg>
